{
  "profiles": {
    "Docker": {
      "commandName": "Docker",
      "launchBrowser": true,
      "launchUrl": "{Scheme}://{ServiceHost}:{ServicePort}/home",
      "environmentVariables": {
        "ASPNETCORE_URLS": "https://+:443;http://+:80"
      },
      "publishAllPorts": true,
      "useSSL": true
    },
    "MusicLibrarySuite.Application": {
      "commandName": "Project",
      "launchBrowser": true,
      "launchUrl": "https://localhost:7208/home",
      "dotnetRunMessages": true,
      "environmentVariables": {
        "ASPNETCORE_ENVIRONMENT": "Development",
        "ASPNETCORE_URLS": "https://localhost:7208;http://localhost:5208"
      }
    },
    "IIS Express": {
      "commandName": "IISExpress",
      "launchBrowser": true,
      "launchUrl": "home",
      "environmentVariables": {
        "ASPNETCORE_ENVIRONMENT": "Development"
      }
    }
  },
  "iisSettings": {
    "anonymousAuthentication": true,
    "iisExpress": {
      "applicationUrl": "http://localhost:32008",
      "sslPort": 44308
    }
  }
}
